{
  "image": "linuxserver/ddclient:latest",
  "container_name": "ddclient",
  "restart": "always",
  "environment": [
    "PUID=${GENERAL_UID}",
    "PGID=${GENERAL_GID}",
    "UMASK=${GENERAL_UMASK}",
    "TZ=${GENERAL_TIMEZONE}"
  ],
  "volumes": [
    "/etc/localtime:/etc/localtime:ro",
    "${CONFIG_DIR}/ddclient:/config"
  ]
}