{
  "image": "linuxserver/jackett:latest",
  "container_name": "jackett",
  "restart": "always",
  "network_mode": "service:openvpn",
  "environment": [
    "PUID=${GENERAL_UID}",
    "PGID=${GENERAL_GID}",
    "UMASK=${GENERAL_UMASK}",
    "TZ=${GENERAL_TIMEZONE}"
  ],
  "volumes": [
    "/etc/localtime:/etc/localtime:ro",
    "${CONFIG_DIR}/jackett:/config"
  ],
  "labels": [
    "traefik.enable=true",
    "traefik.port=9117",
    "traefik.backend=jackett",
    "traefik.frontend.rule=Host:${JACKETT_HOST}"
  ]
}