{
  "image": "plexinc/pms-docker:latest",
  "container_name": "plex",
  "restart": "always",
  "ports": [
    "32400:32400",
    "33400:33400"
  ],
  "environment": [
    "PUID=${GENERAL_UID}",
    "PGID=${GENERAL_GID}",
    "UMASK=${GENERAL_UMASK}",
    "TZ=${GENERAL_TIMEZONE}",
    "PLEX_UID=${GENERAL_UID}",
    "PLEX_GID=${GENERAL_GID}",
    "VERSION=${PLEX_VERSION}",
    "PLEX_CLAIM=${PLEX_CLAIM}",
    "ADVERTISE_IP=${PLEX_ADVERTISE_IP}"
  ],
  "volumes": [
    "/etc/localtime:/etc/localtime:ro",
    "${TMP_DIR}/transcode:/transcode",
    "${CONFIG_DIR}/plex:/config",
    "${MEDIA_MOVIES_DIR}:/data/movies",
    "${MEDIA_MUSIC_DIR}:/data/music",
    "${MEDIA_PHOTOS_DIR}:/data/photos",
    "${MEDIA_SERIES_DIR}:/data/series"
  ],
  "labels": [
    "traefik.enable=true",
    "traefik.port=32400",
    "traefik.backend=plex",
    "traefik.frontend.rule=Host:${PLEX_HOST}"
  ]
}